[
  { "Title" : {
    "propertyName" : "title",
    "value" : "Girls' Generation _ Oh! _ MusicVideo",
    "language" : "",
    "sourceFormat" : "yt",
    "fragmentIdentifier" : "",
    "mappingType" : "exact",
    "titleLabel" : "Girls' Generation _ Oh! _ MusicVideo",
    "typeLink" : "",
    "typeLabel" : "",
    "statusCode" : 200
    } 
  }
]